127.0.0.1 - - [02/Mar/2024:12:14:24 +0530] "GET / HTTP/1.1" 404 751
0:0:0:0:0:0:0:1 - - [02/Mar/2024:12:14:25 +0530] "GET /springmvcsearch/WEB-INF/views/home.jsp HTTP/1.1" 404 682
0:0:0:0:0:0:0:1 - - [02/Mar/2024:12:14:25 +0530] "GET /favicon.ico HTTP/1.1" 404 762
0:0:0:0:0:0:0:1 - - [02/Mar/2024:12:14:39 +0530] "GET /springmvcsearch/home HTTP/1.1" 200 1714
0:0:0:0:0:0:0:1 - - [02/Mar/2024:12:14:46 +0530] "GET /springmvcsearch/search?querybox=youtube HTTP/1.1" 302 -
127.0.0.1 - - [02/Mar/2024:12:29:41 +0530] "GET / HTTP/1.1" 404 751
0:0:0:0:0:0:0:1 - - [02/Mar/2024:12:29:43 +0530] "GET /springmvcsearch/WEB-INF/classes/springmvcsearch/FormController.java HTTP/1.1" 404 682
0:0:0:0:0:0:0:1 - - [02/Mar/2024:12:29:44 +0530] "GET /favicon.ico HTTP/1.1" 404 762
0:0:0:0:0:0:0:1 - - [02/Mar/2024:12:29:54 +0530] "GET /springmvcsearch/complex HTTP/1.1" 500 3655
0:0:0:0:0:0:0:1 - - [02/Mar/2024:12:30:40 +0530] "GET /springmvcsearch/complex HTTP/1.1" 200 4331
127.0.0.1 - - [02/Mar/2024:13:00:51 +0530] "GET / HTTP/1.1" 404 751
0:0:0:0:0:0:0:1 - - [02/Mar/2024:13:00:52 +0530] "GET /springmvcsearch/WEB-INF/views/success.jsp HTTP/1.1" 404 682
0:0:0:0:0:0:0:1 - - [02/Mar/2024:13:01:04 +0530] "GET /springmvcsearch/complex HTTP/1.1" 200 4349
0:0:0:0:0:0:0:1 - - [02/Mar/2024:13:01:34 +0530] "POST /springmvcsearch/handleform HTTP/1.1" 200 296
0:0:0:0:0:0:0:1 - - [02/Mar/2024:13:18:45 +0530] "GET /springmvcsearch/complex HTTP/1.1" 200 4445
