127.0.0.1 - - [29/Feb/2024:09:16:17 +0530] "GET / HTTP/1.1" 404 751
0:0:0:0:0:0:0:1 - - [29/Feb/2024:09:16:19 +0530] "GET /SPRINGMVC/WEB-INF/views/help.jsp HTTP/1.1" 404 682
0:0:0:0:0:0:0:1 - - [29/Feb/2024:09:16:21 +0530] "GET /favicon.ico HTTP/1.1" 404 762
0:0:0:0:0:0:0:1 - - [29/Feb/2024:09:16:31 +0530] "GET /SPRINGMVC/help.jsp HTTP/1.1" 404 738
0:0:0:0:0:0:0:1 - - [29/Feb/2024:09:16:43 +0530] "GET /SPRINGMVC/help HTTP/1.1" 200 185
127.0.0.1 - - [29/Feb/2024:09:46:05 +0530] "GET / HTTP/1.1" 404 751
0:0:0:0:0:0:0:1 - - [29/Feb/2024:09:46:06 +0530] "GET /SPRINGMVC/WEB-INF/views/help.jsp HTTP/1.1" 404 682
0:0:0:0:0:0:0:1 - - [29/Feb/2024:09:46:20 +0530] "GET /SPRINGMVC/help HTTP/1.1" 200 180
127.0.0.1 - - [29/Feb/2024:18:49:05 +0530] "GET / HTTP/1.1" 404 751
0:0:0:0:0:0:0:1 - - [29/Feb/2024:18:49:07 +0530] "GET /SPRINGMVC/WEB-INF/views/help.jsp HTTP/1.1" 404 682
0:0:0:0:0:0:0:1 - - [29/Feb/2024:18:49:09 +0530] "GET /favicon.ico HTTP/1.1" 404 762
0:0:0:0:0:0:0:1 - - [29/Feb/2024:18:49:17 +0530] "GET /SPRINGMVC/help HTTP/1.1" 200 185
0:0:0:0:0:0:0:1 - - [29/Feb/2024:18:56:49 +0530] "GET /SPRINGMVC/help HTTP/1.1" 200 203
0:0:0:0:0:0:0:1 - - [29/Feb/2024:19:03:18 +0530] "GET /SPRINGMVC/help HTTP/1.1" 200 220
0:0:0:0:0:0:0:1 - - [29/Feb/2024:19:18:01 +0530] "GET /SPRINGMVC/first/help HTTP/1.1" 404 682
0:0:0:0:0:0:0:1 - - [29/Feb/2024:19:18:54 +0530] "GET /SPRINGMVC/first/help HTTP/1.1" 200 234
127.0.0.1 - - [29/Feb/2024:22:59:10 +0530] "GET / HTTP/1.1" 404 751
0:0:0:0:0:0:0:1 - - [29/Feb/2024:22:59:10 +0530] "GET /SPRINGMVC/WEB-INF/views/contact.jsp HTTP/1.1" 404 682
0:0:0:0:0:0:0:1 - - [29/Feb/2024:22:59:10 +0530] "GET /favicon.ico HTTP/1.1" 404 762
0:0:0:0:0:0:0:1 - - [29/Feb/2024:22:59:22 +0530] "GET /SPRINGMVC/help HTTP/1.1" 404 682
0:0:0:0:0:0:0:1 - - [29/Feb/2024:22:59:30 +0530] "GET /SPRINGMVC/first/help HTTP/1.1" 200 234
0:0:0:0:0:0:0:1 - - [29/Feb/2024:23:00:06 +0530] "GET /SPRINGMVC/contact.jsp HTTP/1.1" 404 741
0:0:0:0:0:0:0:1 - - [29/Feb/2024:23:00:10 +0530] "GET /SPRINGMVC/contact.jsp HTTP/1.1" 404 741
0:0:0:0:0:0:0:1 - - [29/Feb/2024:23:00:11 +0530] "GET /SPRINGMVC/contact.jsp HTTP/1.1" 404 741
0:0:0:0:0:0:0:1 - - [29/Feb/2024:23:00:12 +0530] "GET /SPRINGMVC/contact.jsp HTTP/1.1" 404 741
0:0:0:0:0:0:0:1 - - [29/Feb/2024:23:00:28 +0530] "GET /SPRINGMVC/WEB-INF/views/contact.jsp HTTP/1.1" 404 682
0:0:0:0:0:0:0:1 - - [29/Feb/2024:23:01:21 +0530] "GET /SPRINGMVC/contact HTTP/1.1" 200 2126
0:0:0:0:0:0:0:1 - - [29/Feb/2024:23:03:31 +0530] "GET /SPRINGMVC/contact HTTP/1.1" 200 1989
0:0:0:0:0:0:0:1 - - [29/Feb/2024:23:03:33 +0530] "POST /processform HTTP/1.1" 404 762
0:0:0:0:0:0:0:1 - - [29/Feb/2024:23:18:02 +0530] "GET /SPRINGMVC/contact HTTP/1.1" 200 2001
0:0:0:0:0:0:0:1 - - [29/Feb/2024:23:18:16 +0530] "POST /SPRINGMVC/processform HTTP/1.1" 404 756
0:0:0:0:0:0:0:1 - - [29/Feb/2024:23:18:39 +0530] "POST /SPRINGMVC/processform HTTP/1.1" 404 756
0:0:0:0:0:0:0:1 - - [29/Feb/2024:23:19:07 +0530] "POST /SPRINGMVC/processform HTTP/1.1" 404 756
0:0:0:0:0:0:0:1 - - [29/Feb/2024:23:19:09 +0530] "GET /SPRINGMVC/contact HTTP/1.1" 200 2001
0:0:0:0:0:0:0:1 - - [29/Feb/2024:23:19:12 +0530] "POST /SPRINGMVC/processform HTTP/1.1" 404 756
0:0:0:0:0:0:0:1 - - [29/Feb/2024:23:26:22 +0530] "POST /SPRINGMVC/processform HTTP/1.1" 400 877
0:0:0:0:0:0:0:1 - - [29/Feb/2024:23:26:22 +0530] "GET /SPRINGMVC/contact HTTP/1.1" 200 2001
0:0:0:0:0:0:0:1 - - [29/Feb/2024:23:27:01 +0530] "POST /SPRINGMVC/processform HTTP/1.1" 400 877
0:0:0:0:0:0:0:1 - - [29/Feb/2024:23:27:32 +0530] "GET /SPRINGMVC/contact HTTP/1.1" 200 2001
0:0:0:0:0:0:0:1 - - [29/Feb/2024:23:27:38 +0530] "POST /SPRINGMVC/processform HTTP/1.1" 400 877
127.0.0.1 - - [29/Feb/2024:23:27:59 +0530] "GET / HTTP/1.1" 404 751
0:0:0:0:0:0:0:1 - - [29/Feb/2024:23:27:59 +0530] "GET /SPRINGMVC/WEB-INF/views/contact.jsp HTTP/1.1" 404 682
0:0:0:0:0:0:0:1 - - [29/Feb/2024:23:28:08 +0530] "GET /SPRINGMVC/contact HTTP/1.1" 200 2001
0:0:0:0:0:0:0:1 - - [29/Feb/2024:23:28:14 +0530] "POST /SPRINGMVC/processform HTTP/1.1" 400 877
0:0:0:0:0:0:0:1 - - [29/Feb/2024:23:29:32 +0530] "GET /SPRINGMVC/contact HTTP/1.1" 200 2033
0:0:0:0:0:0:0:1 - - [29/Feb/2024:23:29:37 +0530] "POST /SPRINGMVC/processform HTTP/1.1" 404 756
0:0:0:0:0:0:0:1 - - [29/Feb/2024:23:35:44 +0530] "GET /SPRINGMVC/contact HTTP/1.1" 200 2033
0:0:0:0:0:0:0:1 - - [29/Feb/2024:23:35:50 +0530] "POST /SPRINGMVC/processform HTTP/1.1" 200 210
