0:0:0:0:0:0:0:1 - - [01/Mar/2024:00:21:25 +0530] "GET /SPRINGMVC/contact HTTP/1.1" 200 2033
0:0:0:0:0:0:0:1 - - [01/Mar/2024:00:21:31 +0530] "POST /SPRINGMVC/processform HTTP/1.1" 500 5078
0:0:0:0:0:0:0:1 - - [01/Mar/2024:00:25:52 +0530] "POST /SPRINGMVC/processform HTTP/1.1" 200 188
0:0:0:0:0:0:0:1 - - [01/Mar/2024:00:26:03 +0530] "POST /SPRINGMVC/processform HTTP/1.1" 200 210
0:0:0:0:0:0:0:1 - - [01/Mar/2024:00:28:46 +0530] "POST /SPRINGMVC/processform HTTP/1.1" 200 228
127.0.0.1 - - [01/Mar/2024:11:01:59 +0530] "GET / HTTP/1.1" 404 751
0:0:0:0:0:0:0:1 - - [01/Mar/2024:11:02:00 +0530] "GET /SPRINGMVC/WEB-INF/views/contact.jsp HTTP/1.1" 404 682
0:0:0:0:0:0:0:1 - - [01/Mar/2024:11:02:02 +0530] "GET /favicon.ico HTTP/1.1" 404 762
0:0:0:0:0:0:0:1 - - [01/Mar/2024:11:02:40 +0530] "GET /SPRINGMVC/contact HTTP/1.1" 200 2133
0:0:0:0:0:0:0:1 - - [01/Mar/2024:11:03:04 +0530] "GET /SPRINGMVC/contact HTTP/1.1" 200 2138
0:0:0:0:0:0:0:1 - - [01/Mar/2024:12:10:20 +0530] "GET /SPRINGMVC/contact HTTP/1.1" 200 2138
0:0:0:0:0:0:0:1 - - [01/Mar/2024:12:10:23 +0530] "GET /SPRINGMVC/contact HTTP/1.1" 200 2138
0:0:0:0:0:0:0:1 - - [01/Mar/2024:12:10:24 +0530] "GET /SPRINGMVC/contact HTTP/1.1" 200 2138
127.0.0.1 - - [01/Mar/2024:12:11:39 +0530] "GET / HTTP/1.1" 404 751
0:0:0:0:0:0:0:1 - - [01/Mar/2024:12:11:39 +0530] "GET /SPRINGMVC/WEB-INF/spring-servlet.xml HTTP/1.1" 404 682
0:0:0:0:0:0:0:1 - - [01/Mar/2024:12:11:55 +0530] "GET /SPRINGMVC/contact HTTP/1.1" 200 2138
0:0:0:0:0:0:0:1 - - [01/Mar/2024:12:13:34 +0530] "GET /SPRINGMVC/WEB-INF/classes/springmvc/dao/UserDao.java HTTP/1.1" 404 682
0:0:0:0:0:0:0:1 - - [01/Mar/2024:12:13:40 +0530] "GET /SPRINGMVC/contact HTTP/1.1" 200 2138
0:0:0:0:0:0:0:1 - - [01/Mar/2024:12:13:46 +0530] "POST /SPRINGMVC/processform HTTP/1.1" 500 3770
127.0.0.1 - - [01/Mar/2024:12:15:36 +0530] "GET / HTTP/1.1" 404 751
0:0:0:0:0:0:0:1 - - [01/Mar/2024:12:15:36 +0530] "GET /SPRINGMVC/WEB-INF/classes/springmvc/dao/UserDao.java HTTP/1.1" 404 682
0:0:0:0:0:0:0:1 - - [01/Mar/2024:12:15:45 +0530] "GET /SPRINGMVC/contact HTTP/1.1" 500 28468
0:0:0:0:0:0:0:1 - - [01/Mar/2024:12:17:39 +0530] "GET /SPRINGMVC/contact HTTP/1.1" 500 28468
127.0.0.1 - - [01/Mar/2024:12:34:01 +0530] "GET / HTTP/1.1" 404 751
0:0:0:0:0:0:0:1 - - [01/Mar/2024:12:34:02 +0530] "GET /SPRINGMVC/WEB-INF/spring-servlet.xml HTTP/1.1" 404 682
0:0:0:0:0:0:0:1 - - [01/Mar/2024:12:34:04 +0530] "GET /favicon.ico HTTP/1.1" 404 762
0:0:0:0:0:0:0:1 - - [01/Mar/2024:12:34:14 +0530] "GET /SPRINGMVC/contact HTTP/1.1" 500 16935
0:0:0:0:0:0:0:1 - - [01/Mar/2024:12:35:11 +0530] "GET /SPRINGMVC/contact HTTP/1.1" 500 28468
0:0:0:0:0:0:0:1 - - [01/Mar/2024:12:35:14 +0530] "GET /SPRINGMVC/contact HTTP/1.1" 500 28468
127.0.0.1 - - [01/Mar/2024:12:57:41 +0530] "GET / HTTP/1.1" 404 751
0:0:0:0:0:0:0:1 - - [01/Mar/2024:12:57:42 +0530] "GET /SPRINGMVC/WEB-INF/classes/springmvc/dao/UserDao.java HTTP/1.1" 404 682
0:0:0:0:0:0:0:1 - - [01/Mar/2024:12:57:48 +0530] "GET /SPRINGMVC/WEB-INF/contact HTTP/1.1" 404 682
0:0:0:0:0:0:0:1 - - [01/Mar/2024:12:57:52 +0530] "GET /SPRINGMVC/WEB-INF/contact HTTP/1.1" 404 682
0:0:0:0:0:0:0:1 - - [01/Mar/2024:12:58:03 +0530] "GET /SPRINGMVC/WEB-INF/contact HTTP/1.1" 404 682
0:0:0:0:0:0:0:1 - - [01/Mar/2024:12:58:09 +0530] "GET /SPRINGMVC/contact HTTP/1.1" 500 28468
0:0:0:0:0:0:0:1 - - [01/Mar/2024:12:58:11 +0530] "GET /SPRINGMVC/contact HTTP/1.1" 500 28468
127.0.0.1 - - [01/Mar/2024:13:00:54 +0530] "GET / HTTP/1.1" 404 751
0:0:0:0:0:0:0:1 - - [01/Mar/2024:13:00:55 +0530] "GET /SPRINGMVC/WEB-INF/classes/springmvc/service/UserService.java HTTP/1.1" 404 682
0:0:0:0:0:0:0:1 - - [01/Mar/2024:13:01:01 +0530] "GET /SPRINGMVC/WEB-INF/contact HTTP/1.1" 404 682
0:0:0:0:0:0:0:1 - - [01/Mar/2024:13:01:14 +0530] "GET /SPRINGMVC/contact HTTP/1.1" 500 28468
0:0:0:0:0:0:0:1 - - [01/Mar/2024:13:09:10 +0530] "GET /SPRINGMVC/contact HTTP/1.1" 500 28468
0:0:0:0:0:0:0:1 - - [01/Mar/2024:13:09:22 +0530] "GET /SPRINGMVC/contact HTTP/1.1" 500 28468
127.0.0.1 - - [01/Mar/2024:13:09:51 +0530] "GET / HTTP/1.1" 404 751
127.0.0.1 - - [01/Mar/2024:13:12:35 +0530] "GET / HTTP/1.1" 404 751
0:0:0:0:0:0:0:1 - - [01/Mar/2024:13:12:36 +0530] "GET /SPRINGMVC/WEB-INF/classes/springmvc/model/User.java HTTP/1.1" 404 682
0:0:0:0:0:0:0:1 - - [01/Mar/2024:13:12:45 +0530] "GET /SPRINGMVC/contact HTTP/1.1" 500 28468
127.0.0.1 - - [01/Mar/2024:13:25:51 +0530] "GET / HTTP/1.1" 404 751
0:0:0:0:0:0:0:1 - - [01/Mar/2024:13:25:51 +0530] "GET /SPRINGMVC/WEB-INF/spring-servlet.xml HTTP/1.1" 404 682
0:0:0:0:0:0:0:1 - - [01/Mar/2024:13:26:08 +0530] "GET /SPRINGMVC/contact HTTP/1.1" 200 2138
0:0:0:0:0:0:0:1 - - [01/Mar/2024:13:26:17 +0530] "POST /SPRINGMVC/processform HTTP/1.1" 500 5132
0:0:0:0:0:0:0:1 - - [01/Mar/2024:13:29:36 +0530] "POST /SPRINGMVC/processform HTTP/1.1" 500 5132
0:0:0:0:0:0:0:1 - - [01/Mar/2024:13:29:41 +0530] "POST /SPRINGMVC/processform HTTP/1.1" 500 5132
127.0.0.1 - - [01/Mar/2024:13:30:37 +0530] "GET / HTTP/1.1" 404 751
0:0:0:0:0:0:0:1 - - [01/Mar/2024:13:31:15 +0530] "GET /SPRINGMVC/contact HTTP/1.1" 500 28468
127.0.0.1 - - [01/Mar/2024:13:32:50 +0530] "GET / HTTP/1.1" 404 751
0:0:0:0:0:0:0:1 - - [01/Mar/2024:13:33:22 +0530] "GET /SPRINGMVC/ HTTP/1.1" 500 28468
0:0:0:0:0:0:0:1 - - [01/Mar/2024:13:33:23 +0530] "GET /favicon.ico HTTP/1.1" 404 762
0:0:0:0:0:0:0:1 - - [01/Mar/2024:13:33:27 +0530] "GET /SPRINGMVC/contact HTTP/1.1" 500 28468
127.0.0.1 - - [01/Mar/2024:13:34:39 +0530] "GET / HTTP/1.1" 404 751
0:0:0:0:0:0:0:1 - - [01/Mar/2024:13:34:39 +0530] "GET /SPRINGMVC/WEB-INF/spring-servlet.xml HTTP/1.1" 404 682
0:0:0:0:0:0:0:1 - - [01/Mar/2024:13:34:48 +0530] "GET /SPRINGMVC/contact HTTP/1.1" 500 75382
127.0.0.1 - - [01/Mar/2024:13:35:25 +0530] "GET / HTTP/1.1" 404 751
0:0:0:0:0:0:0:1 - - [01/Mar/2024:13:35:26 +0530] "GET /SPRINGMVC/WEB-INF/spring-servlet.xml HTTP/1.1" 404 682
0:0:0:0:0:0:0:1 - - [01/Mar/2024:13:35:33 +0530] "GET /SPRINGMVC/contact HTTP/1.1" 500 75382
0:0:0:0:0:0:0:1 - - [01/Mar/2024:13:36:15 +0530] "GET /SPRINGMVC/contact HTTP/1.1" 200 2138
0:0:0:0:0:0:0:1 - - [01/Mar/2024:13:36:22 +0530] "POST /SPRINGMVC/processform HTTP/1.1" 500 5132
127.0.0.1 - - [01/Mar/2024:13:39:19 +0530] "GET / HTTP/1.1" 404 751
0:0:0:0:0:0:0:1 - - [01/Mar/2024:13:39:19 +0530] "GET /SPRINGMVC/WEB-INF/spring-servlet.xml HTTP/1.1" 404 682
0:0:0:0:0:0:0:1 - - [01/Mar/2024:13:39:28 +0530] "GET /SPRINGMVC/contact HTTP/1.1" 500 17187
0:0:0:0:0:0:0:1 - - [01/Mar/2024:13:40:01 +0530] "GET /SPRINGMVC/contact HTTP/1.1" 200 2138
0:0:0:0:0:0:0:1 - - [01/Mar/2024:13:40:06 +0530] "POST /SPRINGMVC/processform HTTP/1.1" 500 5132
0:0:0:0:0:0:0:1 - - [01/Mar/2024:13:44:31 +0530] "POST /SPRINGMVC/processform HTTP/1.1" 500 5132
0:0:0:0:0:0:0:1 - - [01/Mar/2024:13:44:31 +0530] "POST /SPRINGMVC/processform HTTP/1.1" 500 5132
0:0:0:0:0:0:0:1 - - [01/Mar/2024:13:45:08 +0530] "POST /SPRINGMVC/processform HTTP/1.1" 500 5132
0:0:0:0:0:0:0:1 - - [01/Mar/2024:13:45:59 +0530] "POST /SPRINGMVC/processform HTTP/1.1" 500 5132
0:0:0:0:0:0:0:1 - - [01/Mar/2024:13:49:10 +0530] "POST /SPRINGMVC/processform HTTP/1.1" 500 5132
127.0.0.1 - - [01/Mar/2024:13:50:20 +0530] "GET / HTTP/1.1" 404 751
0:0:0:0:0:0:0:1 - - [01/Mar/2024:13:50:20 +0530] "GET /SPRINGMVC/WEB-INF/spring-servlet.xml HTTP/1.1" 404 682
0:0:0:0:0:0:0:1 - - [01/Mar/2024:13:50:27 +0530] "GET /SPRINGMVC/contact HTTP/1.1" 500 17232
0:0:0:0:0:0:0:1 - - [01/Mar/2024:13:57:35 +0530] "GET /SPRINGMVC/ HTTP/1.1" 500 17232
0:0:0:0:0:0:0:1 - - [01/Mar/2024:13:57:48 +0530] "GET /SPRINGMVC/contact HTTP/1.1" 500 17232
0:0:0:0:0:0:0:1 - - [01/Mar/2024:13:57:51 +0530] "GET /SPRINGMVC/contact HTTP/1.1" 500 17232
0:0:0:0:0:0:0:1 - - [01/Mar/2024:13:57:51 +0530] "GET /SPRINGMVC/contact HTTP/1.1" 500 17232
0:0:0:0:0:0:0:1 - - [01/Mar/2024:13:57:52 +0530] "GET /SPRINGMVC/contact HTTP/1.1" 500 17232
127.0.0.1 - - [01/Mar/2024:14:00:08 +0530] "GET / HTTP/1.1" 404 751
0:0:0:0:0:0:0:1 - - [01/Mar/2024:14:00:11 +0530] "GET /SPRINGMVC/ HTTP/1.1" 500 17232
0:0:0:0:0:0:0:1 - - [01/Mar/2024:14:00:21 +0530] "GET /SPRINGMVC/contact HTTP/1.1" 500 17232
0:0:0:0:0:0:0:1 - - [01/Mar/2024:14:00:25 +0530] "GET /SPRINGMVC/contact HTTP/1.1" 500 17232
127.0.0.1 - - [01/Mar/2024:14:03:35 +0530] "GET / HTTP/1.1" 404 751
0:0:0:0:0:0:0:1 - - [01/Mar/2024:14:03:36 +0530] "GET /SPRINGMVC/WEB-INF/spring-servlet.xml HTTP/1.1" 404 682
0:0:0:0:0:0:0:1 - - [01/Mar/2024:14:03:52 +0530] "GET /SPRINGMVC/contact HTTP/1.1" 200 2138
0:0:0:0:0:0:0:1 - - [01/Mar/2024:14:04:01 +0530] "POST /SPRINGMVC/processform HTTP/1.1" 500 17164
0:0:0:0:0:0:0:1 - - [01/Mar/2024:14:04:10 +0530] "POST /SPRINGMVC/processform HTTP/1.1" 200 221
0:0:0:0:0:0:0:1 - - [01/Mar/2024:14:11:54 +0530] "GET /SPRINGMVC/contact HTTP/1.1" 200 2138
127.0.0.1 - - [01/Mar/2024:17:34:27 +0530] "GET / HTTP/1.1" 404 751
0:0:0:0:0:0:0:1 - - [01/Mar/2024:17:34:29 +0530] "GET /SPRINGMVC/WEB-INF/classes/springmvc/controller/ReController.java HTTP/1.1" 404 682
0:0:0:0:0:0:0:1 - - [01/Mar/2024:17:34:30 +0530] "GET /favicon.ico HTTP/1.1" 404 762
0:0:0:0:0:0:0:1 - - [01/Mar/2024:17:35:02 +0530] "GET /SPRINGMVC/one HTTP/1.1" 404 756
0:0:0:0:0:0:0:1 - - [01/Mar/2024:17:37:14 +0530] "GET /SPRINGMVC/ HTTP/1.1" 404 682
0:0:0:0:0:0:0:1 - - [01/Mar/2024:17:41:50 +0530] "GET /SPRINGMVC/one HTTP/1.1" 302 -
0:0:0:0:0:0:0:1 - - [01/Mar/2024:17:41:50 +0530] "GET /SPRINGMVC/enjoy HTTP/1.1" 404 756
0:0:0:0:0:0:0:1 - - [01/Mar/2024:17:49:14 +0530] "GET /SPRINGMVC/one HTTP/1.1" 302 -
0:0:0:0:0:0:0:1 - - [01/Mar/2024:17:49:14 +0530] "GET /SPRINGMVC/enjoy HTTP/1.1" 404 756
0:0:0:0:0:0:0:1 - - [01/Mar/2024:17:57:32 +0530] "GET /SPRINGMVC/contact HTTP/1.1" 200 2138
0:0:0:0:0:0:0:1 - - [01/Mar/2024:17:57:40 +0530] "POST /SPRINGMVC/processform HTTP/1.1" 302 -
0:0:0:0:0:0:0:1 - - [01/Mar/2024:17:57:40 +0530] "GET /SPRINGMVC/contact?Header=Learn+with+saprem&Desc=Home+for+programmer+ HTTP/1.1" 200 2138
127.0.0.1 - - [01/Mar/2024:18:29:30 +0530] "GET / HTTP/1.1" 404 751
0:0:0:0:0:0:0:1 - - [01/Mar/2024:18:29:30 +0530] "GET /springmvcsearch/WEB-INF/views/home.jsp HTTP/1.1" 404 682
0:0:0:0:0:0:0:1 - - [01/Mar/2024:18:29:39 +0530] "GET /springmvcsearch/home HTTP/1.1" 404 682
0:0:0:0:0:0:0:1 - - [01/Mar/2024:18:30:10 +0530] "GET /springmvcsearch/home HTTP/1.1" 404 682
0:0:0:0:0:0:0:1 - - [01/Mar/2024:18:30:13 +0530] "GET /springmvcsearch/home HTTP/1.1" 404 682
0:0:0:0:0:0:0:1 - - [01/Mar/2024:18:30:14 +0530] "GET /springmvcsearch/home HTTP/1.1" 404 682
127.0.0.1 - - [01/Mar/2024:18:30:43 +0530] "GET / HTTP/1.1" 404 751
0:0:0:0:0:0:0:1 - - [01/Mar/2024:18:30:43 +0530] "GET /springmvcsearch/WEB-INF/classes/springmvcsearch/SearchController.java HTTP/1.1" 404 682
0:0:0:0:0:0:0:1 - - [01/Mar/2024:18:31:02 +0530] "GET /springmvcsearch/home HTTP/1.1" 404 682
0:0:0:0:0:0:0:1 - - [01/Mar/2024:18:34:35 +0530] "GET /springmvcsearch/home HTTP/1.1" 404 682
0:0:0:0:0:0:0:1 - - [01/Mar/2024:18:34:37 +0530] "GET /springmvcsearch/home HTTP/1.1" 404 682
0:0:0:0:0:0:0:1 - - [01/Mar/2024:18:34:38 +0530] "GET /springmvcsearch/home HTTP/1.1" 404 682
127.0.0.1 - - [01/Mar/2024:18:35:08 +0530] "GET / HTTP/1.1" 404 751
0:0:0:0:0:0:0:1 - - [01/Mar/2024:18:35:09 +0530] "GET /springmvcsearch/WEB-INF/classes/springmvcsearch/SearchController.java HTTP/1.1" 404 682
0:0:0:0:0:0:0:1 - - [01/Mar/2024:18:35:14 +0530] "GET /springmvcsearch/WEB-INF/classes/springmvcsearch/SearchController.java HTTP/1.1" 404 682
0:0:0:0:0:0:0:1 - - [01/Mar/2024:18:35:21 +0530] "GET /springmvcsearch/ HTTP/1.1" 200 57
0:0:0:0:0:0:0:1 - - [01/Mar/2024:18:35:28 +0530] "GET /springmvcsearch/home HTTP/1.1" 404 682
0:0:0:0:0:0:0:1 - - [01/Mar/2024:18:36:58 +0530] "GET /springmvcsearch/home HTTP/1.1" 404 682
0:0:0:0:0:0:0:1 - - [01/Mar/2024:18:36:59 +0530] "GET /springmvcsearch/home HTTP/1.1" 404 682
0:0:0:0:0:0:0:1 - - [01/Mar/2024:18:37:00 +0530] "GET /springmvcsearch/home HTTP/1.1" 404 682
0:0:0:0:0:0:0:1 - - [01/Mar/2024:18:37:06 +0530] "GET /springmvcsearch/ HTTP/1.1" 200 57
0:0:0:0:0:0:0:1 - - [01/Mar/2024:18:37:11 +0530] "GET /springmvcsearch/home HTTP/1.1" 404 682
0:0:0:0:0:0:0:1 - - [01/Mar/2024:18:37:12 +0530] "GET /springmvcsearch/home HTTP/1.1" 404 682
0:0:0:0:0:0:0:1 - - [01/Mar/2024:18:37:45 +0530] "GET /springmvcsearch/home HTTP/1.1" 404 682
0:0:0:0:0:0:0:1 - - [01/Mar/2024:18:37:47 +0530] "GET /springmvcsearch/home HTTP/1.1" 404 682
127.0.0.1 - - [01/Mar/2024:18:38:23 +0530] "GET / HTTP/1.1" 404 751
0:0:0:0:0:0:0:1 - - [01/Mar/2024:18:38:24 +0530] "GET /springmvcsearch/WEB-INF/spring-servlet.xml HTTP/1.1" 404 682
0:0:0:0:0:0:0:1 - - [01/Mar/2024:18:38:38 +0530] "GET /springmvcsearch/home HTTP/1.1" 200 154
0:0:0:0:0:0:0:1 - - [01/Mar/2024:19:05:44 +0530] "GET /springmvcsearch/home HTTP/1.1" 200 1594
0:0:0:0:0:0:0:1 - - [01/Mar/2024:19:10:55 +0530] "GET /springmvcsearch/home HTTP/1.1" 200 1617
0:0:0:0:0:0:0:1 - - [01/Mar/2024:19:11:11 +0530] "GET /springmvcsearch/home HTTP/1.1" 200 1630
0:0:0:0:0:0:0:1 - - [01/Mar/2024:19:17:31 +0530] "GET /springmvcsearch/home HTTP/1.1" 200 1697
