<?xml version="1.0" encoding="UTF-8"?>
<session version="1.0">
<refactoring comment="Delete resource &apos;Springmvc&apos;" deleteContents="false" description="Delete resource &apos;Springmvc&apos;" element1="/Springmvc" flags="7" id="org.eclipse.ltk.core.refactoring.delete.resources" resources="1" stamp="1709122124585"/>
</session>